-- Merging decision tree log ---
manifest
ADDED from C:\Users\User\IdeaProjects\ImageLoader\app\src\main\AndroidManifest.xml:2:1-27:12
INJECTED from C:\Users\User\IdeaProjects\ImageLoader\app\src\main\AndroidManifest.xml:2:1-27:12
INJECTED from C:\Users\User\IdeaProjects\ImageLoader\app\src\main\AndroidManifest.xml:2:1-27:12
INJECTED from C:\Users\User\IdeaProjects\ImageLoader\app\src\main\AndroidManifest.xml:2:1-27:12
MERGED from [androidx.constraintlayout:constraintlayout:2.0.3] C:\Users\User\.gradle\caches\transforms-2\files-2.1\a45aea517798ffbd987255623556988e\constraintlayout-2.0.3\AndroidManifest.xml:2:1-11:12
MERGED from [com.google.android.material:material:1.0.0] C:\Users\User\.gradle\caches\transforms-2\files-2.1\1cec22fa15de78013662f61bbb44830b\material-1.0.0\AndroidManifest.xml:17:1-24:12
MERGED from [androidx.appcompat:appcompat:1.2.0] C:\Users\User\.gradle\caches\transforms-2\files-2.1\5bdb1d293da3bda9f6329f5b8ac6e42b\appcompat-1.2.0\AndroidManifest.xml:17:1-24:12
MERGED from [androidx.core:core-ktx:1.3.2] C:\Users\User\.gradle\caches\transforms-2\files-2.1\9b9baf09a2e1b613fdf1153d08618f57\core-ktx-1.3.2\AndroidManifest.xml:2:1-9:12
MERGED from [io.reactivex.rxjava2:rxandroid:2.0.2] C:\Users\User\.gradle\caches\transforms-2\files-2.1\c20a9bdc0155d774faa2038f1fdda5d0\rxandroid-2.0.2\AndroidManifest.xml:15:1-21:12
MERGED from [com.github.d-max:spots-dialog:1.1] C:\Users\User\.gradle\caches\transforms-2\files-2.1\08d61ad37999635f0db979fce850c9b2\jetified-spots-dialog-1.1\AndroidManifest.xml:2:1-13:12
MERGED from [androidx.cardview:cardview:1.0.0] C:\Users\User\.gradle\caches\transforms-2\files-2.1\c36f91df22f90676e24c454e5a084464\cardview-1.0.0\AndroidManifest.xml:17:1-22:12
MERGED from [androidx.recyclerview:recyclerview:1.0.0] C:\Users\User\.gradle\caches\transforms-2\files-2.1\9b55a5a60bb8908dd39f71f5523269ae\recyclerview-1.0.0\AndroidManifest.xml:17:1-22:12
MERGED from [androidx.legacy:legacy-support-core-ui:1.0.0] C:\Users\User\.gradle\caches\transforms-2\files-2.1\5347b8114109c225519339708cf221ec\legacy-support-core-ui-1.0.0\AndroidManifest.xml:17:1-22:12
MERGED from [androidx.cursoradapter:cursoradapter:1.0.0] C:\Users\User\.gradle\caches\transforms-2\files-2.1\8113c412b55898e7a9958e5dc5b2ce01\cursoradapter-1.0.0\AndroidManifest.xml:17:1-22:12
MERGED from [androidx.fragment:fragment:1.1.0] C:\Users\User\.gradle\caches\transforms-2\files-2.1\2a3eb696dd8888818d78a15af9ba95db\fragment-1.1.0\AndroidManifest.xml:17:1-24:12
MERGED from [androidx.appcompat:appcompat-resources:1.2.0] C:\Users\User\.gradle\caches\transforms-2\files-2.1\7105993ad8b880635e86121519024e8b\appcompat-resources-1.2.0\AndroidManifest.xml:17:1-24:12
MERGED from [androidx.drawerlayout:drawerlayout:1.0.0] C:\Users\User\.gradle\caches\transforms-2\files-2.1\a9bb16ba2618331b1e9e8090e0f8be8d\drawerlayout-1.0.0\AndroidManifest.xml:17:1-22:12
MERGED from [androidx.legacy:legacy-support-core-utils:1.0.0] C:\Users\User\.gradle\caches\transforms-2\files-2.1\6aaddca2d6c1bb7ced11c42c85ea2c9e\legacy-support-core-utils-1.0.0\AndroidManifest.xml:17:1-22:12
MERGED from [androidx.transition:transition:1.0.0] C:\Users\User\.gradle\caches\transforms-2\files-2.1\4e3d47165b038f78dfd1a64b9c48319a\transition-1.0.0\AndroidManifest.xml:17:1-22:12
MERGED from [androidx.viewpager:viewpager:1.0.0] C:\Users\User\.gradle\caches\transforms-2\files-2.1\7886812f2cd0611d94af6697d58b7718\viewpager-1.0.0\AndroidManifest.xml:17:1-22:12
MERGED from [androidx.loader:loader:1.0.0] C:\Users\User\.gradle\caches\transforms-2\files-2.1\2ac213783bb0c9be228fa6a6fbf64a3f\loader-1.0.0\AndroidManifest.xml:17:1-22:12
MERGED from [androidx.activity:activity:1.0.0] C:\Users\User\.gradle\caches\transforms-2\files-2.1\03cdd4e03717f2cb9d802b810cacd54a\activity-1.0.0\AndroidManifest.xml:17:1-24:12
MERGED from [androidx.vectordrawable:vectordrawable-animated:1.1.0] C:\Users\User\.gradle\caches\transforms-2\files-2.1\6557144818825ebae6ac1dbd46a8a27b\vectordrawable-animated-1.1.0\AndroidManifest.xml:17:1-24:12
MERGED from [androidx.vectordrawable:vectordrawable:1.1.0] C:\Users\User\.gradle\caches\transforms-2\files-2.1\a083b50f2ca3599f6f3f0e146cd8325a\vectordrawable-1.1.0\AndroidManifest.xml:17:1-24:12
MERGED from [androidx.coordinatorlayout:coordinatorlayout:1.0.0] C:\Users\User\.gradle\caches\transforms-2\files-2.1\aeed780c580657e136e86c573d0b8843\coordinatorlayout-1.0.0\AndroidManifest.xml:17:1-22:12
MERGED from [androidx.slidingpanelayout:slidingpanelayout:1.0.0] C:\Users\User\.gradle\caches\transforms-2\files-2.1\1ee27b5b6dc87c4eb58f8b70e28a06cf\slidingpanelayout-1.0.0\AndroidManifest.xml:17:1-22:12
MERGED from [androidx.customview:customview:1.0.0] C:\Users\User\.gradle\caches\transforms-2\files-2.1\5d4ff1e827a9697ca4bf6a1319794dde\customview-1.0.0\AndroidManifest.xml:17:1-22:12
MERGED from [androidx.swiperefreshlayout:swiperefreshlayout:1.0.0] C:\Users\User\.gradle\caches\transforms-2\files-2.1\105d388ee93c1c32329a5650e89f601c\swiperefreshlayout-1.0.0\AndroidManifest.xml:17:1-22:12
MERGED from [androidx.asynclayoutinflater:asynclayoutinflater:1.0.0] C:\Users\User\.gradle\caches\transforms-2\files-2.1\5af4aad4cfac66aac5770b4150cc3878\asynclayoutinflater-1.0.0\AndroidManifest.xml:17:1-22:12
MERGED from [androidx.core:core:1.3.2] C:\Users\User\.gradle\caches\transforms-2\files-2.1\64a1a151b61328f3dfc8d8a646d20637\core-1.3.2\AndroidManifest.xml:17:1-26:12
MERGED from [androidx.versionedparcelable:versionedparcelable:1.1.0] C:\Users\User\.gradle\caches\transforms-2\files-2.1\35454a7acc5e3b0e766b345cad40d5e7\versionedparcelable-1.1.0\AndroidManifest.xml:17:1-27:12
MERGED from [androidx.interpolator:interpolator:1.0.0] C:\Users\User\.gradle\caches\transforms-2\files-2.1\29bacab76bac776e691066552b0734d4\interpolator-1.0.0\AndroidManifest.xml:17:1-22:12
MERGED from [androidx.documentfile:documentfile:1.0.0] C:\Users\User\.gradle\caches\transforms-2\files-2.1\5ad76253b6724ef26d069e4f23531467\documentfile-1.0.0\AndroidManifest.xml:17:1-22:12
MERGED from [androidx.localbroadcastmanager:localbroadcastmanager:1.0.0] C:\Users\User\.gradle\caches\transforms-2\files-2.1\231bf09a16a90031c2b4d7c06ff2b762\localbroadcastmanager-1.0.0\AndroidManifest.xml:17:1-22:12
MERGED from [androidx.print:print:1.0.0] C:\Users\User\.gradle\caches\transforms-2\files-2.1\24f297abfb14d88021ada11cbce0c7f3\print-1.0.0\AndroidManifest.xml:17:1-22:12
MERGED from [androidx.lifecycle:lifecycle-runtime:2.1.0] C:\Users\User\.gradle\caches\transforms-2\files-2.1\c131664763b5ee5e47c9007e1341f8ea\lifecycle-runtime-2.1.0\AndroidManifest.xml:17:1-22:12
MERGED from [androidx.lifecycle:lifecycle-viewmodel:2.1.0] C:\Users\User\.gradle\caches\transforms-2\files-2.1\fd4a6e580fe30f771f9a6c60f1a18b27\lifecycle-viewmodel-2.1.0\AndroidManifest.xml:17:1-22:12
MERGED from [androidx.savedstate:savedstate:1.0.0] C:\Users\User\.gradle\caches\transforms-2\files-2.1\e1ffd964f5bbbdca22c8a3c5e0b7c1b0\savedstate-1.0.0\AndroidManifest.xml:17:1-24:12
MERGED from [androidx.lifecycle:lifecycle-livedata:2.0.0] C:\Users\User\.gradle\caches\transforms-2\files-2.1\320b57fe7155b7d6393fd96baf595606\lifecycle-livedata-2.0.0\AndroidManifest.xml:17:1-22:12
MERGED from [androidx.lifecycle:lifecycle-livedata-core:2.0.0] C:\Users\User\.gradle\caches\transforms-2\files-2.1\bba2d74496bbc9bda2f6998cfc2bb850\lifecycle-livedata-core-2.0.0\AndroidManifest.xml:17:1-22:12
MERGED from [androidx.arch.core:core-runtime:2.0.0] C:\Users\User\.gradle\caches\transforms-2\files-2.1\97762d4a4631fda0e1525138d21ba612\core-runtime-2.0.0\AndroidManifest.xml:17:1-22:12
INJECTED from C:\Users\User\IdeaProjects\ImageLoader\app\src\main\AndroidManifest.xml:2:1-27:12
INJECTED from C:\Users\User\IdeaProjects\ImageLoader\app\src\main\AndroidManifest.xml:2:1-27:12
INJECTED from C:\Users\User\IdeaProjects\ImageLoader\app\src\main\AndroidManifest.xml:2:1-27:12
	package
		ADDED from C:\Users\User\IdeaProjects\ImageLoader\app\src\main\AndroidManifest.xml:3:11-44
		INJECTED from C:\Users\User\IdeaProjects\ImageLoader\app\src\main\AndroidManifest.xml
		INJECTED from C:\Users\User\IdeaProjects\ImageLoader\app\src\main\AndroidManifest.xml
	android:versionName
		INJECTED from C:\Users\User\IdeaProjects\ImageLoader\app\src\main\AndroidManifest.xml
		ADDED from C:\Users\User\IdeaProjects\ImageLoader\app\src\main\AndroidManifest.xml:2:1-27:12
		INJECTED from C:\Users\User\IdeaProjects\ImageLoader\app\src\main\AndroidManifest.xml
	android:versionCode
		INJECTED from C:\Users\User\IdeaProjects\ImageLoader\app\src\main\AndroidManifest.xml
		ADDED from C:\Users\User\IdeaProjects\ImageLoader\app\src\main\AndroidManifest.xml:2:1-27:12
		INJECTED from C:\Users\User\IdeaProjects\ImageLoader\app\src\main\AndroidManifest.xml
	xmlns:android
		ADDED from C:\Users\User\IdeaProjects\ImageLoader\app\src\main\AndroidManifest.xml:2:11-69
uses-permission#android.permission.INTERNET
ADDED from C:\Users\User\IdeaProjects\ImageLoader\app\src\main\AndroidManifest.xml:5:5-66
	android:name
		ADDED from C:\Users\User\IdeaProjects\ImageLoader\app\src\main\AndroidManifest.xml:5:22-64
application
ADDED from C:\Users\User\IdeaProjects\ImageLoader\app\src\main\AndroidManifest.xml:7:5-25:19
MERGED from [androidx.constraintlayout:constraintlayout:2.0.3] C:\Users\User\.gradle\caches\transforms-2\files-2.1\a45aea517798ffbd987255623556988e\constraintlayout-2.0.3\AndroidManifest.xml:9:5-20
MERGED from [androidx.constraintlayout:constraintlayout:2.0.3] C:\Users\User\.gradle\caches\transforms-2\files-2.1\a45aea517798ffbd987255623556988e\constraintlayout-2.0.3\AndroidManifest.xml:9:5-20
MERGED from [com.google.android.material:material:1.0.0] C:\Users\User\.gradle\caches\transforms-2\files-2.1\1cec22fa15de78013662f61bbb44830b\material-1.0.0\AndroidManifest.xml:22:5-20
MERGED from [com.google.android.material:material:1.0.0] C:\Users\User\.gradle\caches\transforms-2\files-2.1\1cec22fa15de78013662f61bbb44830b\material-1.0.0\AndroidManifest.xml:22:5-20
MERGED from [com.github.d-max:spots-dialog:1.1] C:\Users\User\.gradle\caches\transforms-2\files-2.1\08d61ad37999635f0db979fce850c9b2\jetified-spots-dialog-1.1\AndroidManifest.xml:11:5-20
MERGED from [com.github.d-max:spots-dialog:1.1] C:\Users\User\.gradle\caches\transforms-2\files-2.1\08d61ad37999635f0db979fce850c9b2\jetified-spots-dialog-1.1\AndroidManifest.xml:11:5-20
MERGED from [androidx.core:core:1.3.2] C:\Users\User\.gradle\caches\transforms-2\files-2.1\64a1a151b61328f3dfc8d8a646d20637\core-1.3.2\AndroidManifest.xml:24:5-89
MERGED from [androidx.core:core:1.3.2] C:\Users\User\.gradle\caches\transforms-2\files-2.1\64a1a151b61328f3dfc8d8a646d20637\core-1.3.2\AndroidManifest.xml:24:5-89
MERGED from [androidx.versionedparcelable:versionedparcelable:1.1.0] C:\Users\User\.gradle\caches\transforms-2\files-2.1\35454a7acc5e3b0e766b345cad40d5e7\versionedparcelable-1.1.0\AndroidManifest.xml:24:5-25:19
MERGED from [androidx.versionedparcelable:versionedparcelable:1.1.0] C:\Users\User\.gradle\caches\transforms-2\files-2.1\35454a7acc5e3b0e766b345cad40d5e7\versionedparcelable-1.1.0\AndroidManifest.xml:24:5-25:19
	android:appComponentFactory
		ADDED from [androidx.core:core:1.3.2] C:\Users\User\.gradle\caches\transforms-2\files-2.1\64a1a151b61328f3dfc8d8a646d20637\core-1.3.2\AndroidManifest.xml:24:18-86
	android:supportsRtl
		ADDED from C:\Users\User\IdeaProjects\ImageLoader\app\src\main\AndroidManifest.xml:14:13-39
	android:label
		ADDED from C:\Users\User\IdeaProjects\ImageLoader\app\src\main\AndroidManifest.xml:12:13-45
	android:roundIcon
		ADDED from C:\Users\User\IdeaProjects\ImageLoader\app\src\main\AndroidManifest.xml:13:13-58
	android:configChanges
		ADDED from C:\Users\User\IdeaProjects\ImageLoader\app\src\main\AndroidManifest.xml:9:13-48
	android:icon
		ADDED from C:\Users\User\IdeaProjects\ImageLoader\app\src\main\AndroidManifest.xml:11:13-47
	android:allowBackup
		ADDED from C:\Users\User\IdeaProjects\ImageLoader\app\src\main\AndroidManifest.xml:10:13-39
	android:theme
		ADDED from C:\Users\User\IdeaProjects\ImageLoader\app\src\main\AndroidManifest.xml:15:13-44
	android:usesCleartextTraffic
		ADDED from C:\Users\User\IdeaProjects\ImageLoader\app\src\main\AndroidManifest.xml:8:13-48
activity#com.example.imageloader.MainActivity
ADDED from C:\Users\User\IdeaProjects\ImageLoader\app\src\main\AndroidManifest.xml:16:9-24:20
	android:configChanges
		ADDED from C:\Users\User\IdeaProjects\ImageLoader\app\src\main\AndroidManifest.xml:17:19-65
	android:name
		ADDED from C:\Users\User\IdeaProjects\ImageLoader\app\src\main\AndroidManifest.xml:16:19-47
intent-filter#action:name:android.intent.action.MAIN+category:name:android.intent.category.LAUNCHER
ADDED from C:\Users\User\IdeaProjects\ImageLoader\app\src\main\AndroidManifest.xml:18:13-23:29
action#android.intent.action.MAIN
ADDED from C:\Users\User\IdeaProjects\ImageLoader\app\src\main\AndroidManifest.xml:19:17-20:19
	android:name
		ADDED from C:\Users\User\IdeaProjects\ImageLoader\app\src\main\AndroidManifest.xml:19:25-66
category#android.intent.category.LAUNCHER
ADDED from C:\Users\User\IdeaProjects\ImageLoader\app\src\main\AndroidManifest.xml:22:17-76
	android:name
		ADDED from C:\Users\User\IdeaProjects\ImageLoader\app\src\main\AndroidManifest.xml:22:27-74
uses-sdk
INJECTED from C:\Users\User\IdeaProjects\ImageLoader\app\src\main\AndroidManifest.xml reason: use-sdk injection requested
INJECTED from C:\Users\User\IdeaProjects\ImageLoader\app\src\main\AndroidManifest.xml
INJECTED from C:\Users\User\IdeaProjects\ImageLoader\app\src\main\AndroidManifest.xml
MERGED from [androidx.constraintlayout:constraintlayout:2.0.3] C:\Users\User\.gradle\caches\transforms-2\files-2.1\a45aea517798ffbd987255623556988e\constraintlayout-2.0.3\AndroidManifest.xml:5:5-7:41
MERGED from [androidx.constraintlayout:constraintlayout:2.0.3] C:\Users\User\.gradle\caches\transforms-2\files-2.1\a45aea517798ffbd987255623556988e\constraintlayout-2.0.3\AndroidManifest.xml:5:5-7:41
MERGED from [com.google.android.material:material:1.0.0] C:\Users\User\.gradle\caches\transforms-2\files-2.1\1cec22fa15de78013662f61bbb44830b\material-1.0.0\AndroidManifest.xml:20:5-44
MERGED from [com.google.android.material:material:1.0.0] C:\Users\User\.gradle\caches\transforms-2\files-2.1\1cec22fa15de78013662f61bbb44830b\material-1.0.0\AndroidManifest.xml:20:5-44
MERGED from [androidx.appcompat:appcompat:1.2.0] C:\Users\User\.gradle\caches\transforms-2\files-2.1\5bdb1d293da3bda9f6329f5b8ac6e42b\appcompat-1.2.0\AndroidManifest.xml:20:5-22:41
MERGED from [androidx.appcompat:appcompat:1.2.0] C:\Users\User\.gradle\caches\transforms-2\files-2.1\5bdb1d293da3bda9f6329f5b8ac6e42b\appcompat-1.2.0\AndroidManifest.xml:20:5-22:41
MERGED from [androidx.core:core-ktx:1.3.2] C:\Users\User\.gradle\caches\transforms-2\files-2.1\9b9baf09a2e1b613fdf1153d08618f57\core-ktx-1.3.2\AndroidManifest.xml:5:5-7:41
MERGED from [androidx.core:core-ktx:1.3.2] C:\Users\User\.gradle\caches\transforms-2\files-2.1\9b9baf09a2e1b613fdf1153d08618f57\core-ktx-1.3.2\AndroidManifest.xml:5:5-7:41
MERGED from [io.reactivex.rxjava2:rxandroid:2.0.2] C:\Users\User\.gradle\caches\transforms-2\files-2.1\c20a9bdc0155d774faa2038f1fdda5d0\rxandroid-2.0.2\AndroidManifest.xml:19:5-43
MERGED from [io.reactivex.rxjava2:rxandroid:2.0.2] C:\Users\User\.gradle\caches\transforms-2\files-2.1\c20a9bdc0155d774faa2038f1fdda5d0\rxandroid-2.0.2\AndroidManifest.xml:19:5-43
MERGED from [com.github.d-max:spots-dialog:1.1] C:\Users\User\.gradle\caches\transforms-2\files-2.1\08d61ad37999635f0db979fce850c9b2\jetified-spots-dialog-1.1\AndroidManifest.xml:7:5-9:41
MERGED from [com.github.d-max:spots-dialog:1.1] C:\Users\User\.gradle\caches\transforms-2\files-2.1\08d61ad37999635f0db979fce850c9b2\jetified-spots-dialog-1.1\AndroidManifest.xml:7:5-9:41
MERGED from [androidx.cardview:cardview:1.0.0] C:\Users\User\.gradle\caches\transforms-2\files-2.1\c36f91df22f90676e24c454e5a084464\cardview-1.0.0\AndroidManifest.xml:20:5-44
MERGED from [androidx.cardview:cardview:1.0.0] C:\Users\User\.gradle\caches\transforms-2\files-2.1\c36f91df22f90676e24c454e5a084464\cardview-1.0.0\AndroidManifest.xml:20:5-44
MERGED from [androidx.recyclerview:recyclerview:1.0.0] C:\Users\User\.gradle\caches\transforms-2\files-2.1\9b55a5a60bb8908dd39f71f5523269ae\recyclerview-1.0.0\AndroidManifest.xml:20:5-44
MERGED from [androidx.recyclerview:recyclerview:1.0.0] C:\Users\User\.gradle\caches\transforms-2\files-2.1\9b55a5a60bb8908dd39f71f5523269ae\recyclerview-1.0.0\AndroidManifest.xml:20:5-44
MERGED from [androidx.legacy:legacy-support-core-ui:1.0.0] C:\Users\User\.gradle\caches\transforms-2\files-2.1\5347b8114109c225519339708cf221ec\legacy-support-core-ui-1.0.0\AndroidManifest.xml:20:5-44
MERGED from [androidx.legacy:legacy-support-core-ui:1.0.0] C:\Users\User\.gradle\caches\transforms-2\files-2.1\5347b8114109c225519339708cf221ec\legacy-support-core-ui-1.0.0\AndroidManifest.xml:20:5-44
MERGED from [androidx.cursoradapter:cursoradapter:1.0.0] C:\Users\User\.gradle\caches\transforms-2\files-2.1\8113c412b55898e7a9958e5dc5b2ce01\cursoradapter-1.0.0\AndroidManifest.xml:20:5-44
MERGED from [androidx.cursoradapter:cursoradapter:1.0.0] C:\Users\User\.gradle\caches\transforms-2\files-2.1\8113c412b55898e7a9958e5dc5b2ce01\cursoradapter-1.0.0\AndroidManifest.xml:20:5-44
MERGED from [androidx.fragment:fragment:1.1.0] C:\Users\User\.gradle\caches\transforms-2\files-2.1\2a3eb696dd8888818d78a15af9ba95db\fragment-1.1.0\AndroidManifest.xml:20:5-22:41
MERGED from [androidx.fragment:fragment:1.1.0] C:\Users\User\.gradle\caches\transforms-2\files-2.1\2a3eb696dd8888818d78a15af9ba95db\fragment-1.1.0\AndroidManifest.xml:20:5-22:41
MERGED from [androidx.appcompat:appcompat-resources:1.2.0] C:\Users\User\.gradle\caches\transforms-2\files-2.1\7105993ad8b880635e86121519024e8b\appcompat-resources-1.2.0\AndroidManifest.xml:20:5-22:41
MERGED from [androidx.appcompat:appcompat-resources:1.2.0] C:\Users\User\.gradle\caches\transforms-2\files-2.1\7105993ad8b880635e86121519024e8b\appcompat-resources-1.2.0\AndroidManifest.xml:20:5-22:41
MERGED from [androidx.drawerlayout:drawerlayout:1.0.0] C:\Users\User\.gradle\caches\transforms-2\files-2.1\a9bb16ba2618331b1e9e8090e0f8be8d\drawerlayout-1.0.0\AndroidManifest.xml:20:5-44
MERGED from [androidx.drawerlayout:drawerlayout:1.0.0] C:\Users\User\.gradle\caches\transforms-2\files-2.1\a9bb16ba2618331b1e9e8090e0f8be8d\drawerlayout-1.0.0\AndroidManifest.xml:20:5-44
MERGED from [androidx.legacy:legacy-support-core-utils:1.0.0] C:\Users\User\.gradle\caches\transforms-2\files-2.1\6aaddca2d6c1bb7ced11c42c85ea2c9e\legacy-support-core-utils-1.0.0\AndroidManifest.xml:20:5-44
MERGED from [androidx.legacy:legacy-support-core-utils:1.0.0] C:\Users\User\.gradle\caches\transforms-2\files-2.1\6aaddca2d6c1bb7ced11c42c85ea2c9e\legacy-support-core-utils-1.0.0\AndroidManifest.xml:20:5-44
MERGED from [androidx.transition:transition:1.0.0] C:\Users\User\.gradle\caches\transforms-2\files-2.1\4e3d47165b038f78dfd1a64b9c48319a\transition-1.0.0\AndroidManifest.xml:20:5-44
MERGED from [androidx.transition:transition:1.0.0] C:\Users\User\.gradle\caches\transforms-2\files-2.1\4e3d47165b038f78dfd1a64b9c48319a\transition-1.0.0\AndroidManifest.xml:20:5-44
MERGED from [androidx.viewpager:viewpager:1.0.0] C:\Users\User\.gradle\caches\transforms-2\files-2.1\7886812f2cd0611d94af6697d58b7718\viewpager-1.0.0\AndroidManifest.xml:20:5-44
MERGED from [androidx.viewpager:viewpager:1.0.0] C:\Users\User\.gradle\caches\transforms-2\files-2.1\7886812f2cd0611d94af6697d58b7718\viewpager-1.0.0\AndroidManifest.xml:20:5-44
MERGED from [androidx.loader:loader:1.0.0] C:\Users\User\.gradle\caches\transforms-2\files-2.1\2ac213783bb0c9be228fa6a6fbf64a3f\loader-1.0.0\AndroidManifest.xml:20:5-44
MERGED from [androidx.loader:loader:1.0.0] C:\Users\User\.gradle\caches\transforms-2\files-2.1\2ac213783bb0c9be228fa6a6fbf64a3f\loader-1.0.0\AndroidManifest.xml:20:5-44
MERGED from [androidx.activity:activity:1.0.0] C:\Users\User\.gradle\caches\transforms-2\files-2.1\03cdd4e03717f2cb9d802b810cacd54a\activity-1.0.0\AndroidManifest.xml:20:5-22:41
MERGED from [androidx.activity:activity:1.0.0] C:\Users\User\.gradle\caches\transforms-2\files-2.1\03cdd4e03717f2cb9d802b810cacd54a\activity-1.0.0\AndroidManifest.xml:20:5-22:41
MERGED from [androidx.vectordrawable:vectordrawable-animated:1.1.0] C:\Users\User\.gradle\caches\transforms-2\files-2.1\6557144818825ebae6ac1dbd46a8a27b\vectordrawable-animated-1.1.0\AndroidManifest.xml:20:5-22:41
MERGED from [androidx.vectordrawable:vectordrawable-animated:1.1.0] C:\Users\User\.gradle\caches\transforms-2\files-2.1\6557144818825ebae6ac1dbd46a8a27b\vectordrawable-animated-1.1.0\AndroidManifest.xml:20:5-22:41
MERGED from [androidx.vectordrawable:vectordrawable:1.1.0] C:\Users\User\.gradle\caches\transforms-2\files-2.1\a083b50f2ca3599f6f3f0e146cd8325a\vectordrawable-1.1.0\AndroidManifest.xml:20:5-22:41
MERGED from [androidx.vectordrawable:vectordrawable:1.1.0] C:\Users\User\.gradle\caches\transforms-2\files-2.1\a083b50f2ca3599f6f3f0e146cd8325a\vectordrawable-1.1.0\AndroidManifest.xml:20:5-22:41
MERGED from [androidx.coordinatorlayout:coordinatorlayout:1.0.0] C:\Users\User\.gradle\caches\transforms-2\files-2.1\aeed780c580657e136e86c573d0b8843\coordinatorlayout-1.0.0\AndroidManifest.xml:20:5-44
MERGED from [androidx.coordinatorlayout:coordinatorlayout:1.0.0] C:\Users\User\.gradle\caches\transforms-2\files-2.1\aeed780c580657e136e86c573d0b8843\coordinatorlayout-1.0.0\AndroidManifest.xml:20:5-44
MERGED from [androidx.slidingpanelayout:slidingpanelayout:1.0.0] C:\Users\User\.gradle\caches\transforms-2\files-2.1\1ee27b5b6dc87c4eb58f8b70e28a06cf\slidingpanelayout-1.0.0\AndroidManifest.xml:20:5-44
MERGED from [androidx.slidingpanelayout:slidingpanelayout:1.0.0] C:\Users\User\.gradle\caches\transforms-2\files-2.1\1ee27b5b6dc87c4eb58f8b70e28a06cf\slidingpanelayout-1.0.0\AndroidManifest.xml:20:5-44
MERGED from [androidx.customview:customview:1.0.0] C:\Users\User\.gradle\caches\transforms-2\files-2.1\5d4ff1e827a9697ca4bf6a1319794dde\customview-1.0.0\AndroidManifest.xml:20:5-44
MERGED from [androidx.customview:customview:1.0.0] C:\Users\User\.gradle\caches\transforms-2\files-2.1\5d4ff1e827a9697ca4bf6a1319794dde\customview-1.0.0\AndroidManifest.xml:20:5-44
MERGED from [androidx.swiperefreshlayout:swiperefreshlayout:1.0.0] C:\Users\User\.gradle\caches\transforms-2\files-2.1\105d388ee93c1c32329a5650e89f601c\swiperefreshlayout-1.0.0\AndroidManifest.xml:20:5-44
MERGED from [androidx.swiperefreshlayout:swiperefreshlayout:1.0.0] C:\Users\User\.gradle\caches\transforms-2\files-2.1\105d388ee93c1c32329a5650e89f601c\swiperefreshlayout-1.0.0\AndroidManifest.xml:20:5-44
MERGED from [androidx.asynclayoutinflater:asynclayoutinflater:1.0.0] C:\Users\User\.gradle\caches\transforms-2\files-2.1\5af4aad4cfac66aac5770b4150cc3878\asynclayoutinflater-1.0.0\AndroidManifest.xml:20:5-44
MERGED from [androidx.asynclayoutinflater:asynclayoutinflater:1.0.0] C:\Users\User\.gradle\caches\transforms-2\files-2.1\5af4aad4cfac66aac5770b4150cc3878\asynclayoutinflater-1.0.0\AndroidManifest.xml:20:5-44
MERGED from [androidx.core:core:1.3.2] C:\Users\User\.gradle\caches\transforms-2\files-2.1\64a1a151b61328f3dfc8d8a646d20637\core-1.3.2\AndroidManifest.xml:20:5-22:41
MERGED from [androidx.core:core:1.3.2] C:\Users\User\.gradle\caches\transforms-2\files-2.1\64a1a151b61328f3dfc8d8a646d20637\core-1.3.2\AndroidManifest.xml:20:5-22:41
MERGED from [androidx.versionedparcelable:versionedparcelable:1.1.0] C:\Users\User\.gradle\caches\transforms-2\files-2.1\35454a7acc5e3b0e766b345cad40d5e7\versionedparcelable-1.1.0\AndroidManifest.xml:20:5-22:41
MERGED from [androidx.versionedparcelable:versionedparcelable:1.1.0] C:\Users\User\.gradle\caches\transforms-2\files-2.1\35454a7acc5e3b0e766b345cad40d5e7\versionedparcelable-1.1.0\AndroidManifest.xml:20:5-22:41
MERGED from [androidx.interpolator:interpolator:1.0.0] C:\Users\User\.gradle\caches\transforms-2\files-2.1\29bacab76bac776e691066552b0734d4\interpolator-1.0.0\AndroidManifest.xml:20:5-44
MERGED from [androidx.interpolator:interpolator:1.0.0] C:\Users\User\.gradle\caches\transforms-2\files-2.1\29bacab76bac776e691066552b0734d4\interpolator-1.0.0\AndroidManifest.xml:20:5-44
MERGED from [androidx.documentfile:documentfile:1.0.0] C:\Users\User\.gradle\caches\transforms-2\files-2.1\5ad76253b6724ef26d069e4f23531467\documentfile-1.0.0\AndroidManifest.xml:20:5-44
MERGED from [androidx.documentfile:documentfile:1.0.0] C:\Users\User\.gradle\caches\transforms-2\files-2.1\5ad76253b6724ef26d069e4f23531467\documentfile-1.0.0\AndroidManifest.xml:20:5-44
MERGED from [androidx.localbroadcastmanager:localbroadcastmanager:1.0.0] C:\Users\User\.gradle\caches\transforms-2\files-2.1\231bf09a16a90031c2b4d7c06ff2b762\localbroadcastmanager-1.0.0\AndroidManifest.xml:20:5-44
MERGED from [androidx.localbroadcastmanager:localbroadcastmanager:1.0.0] C:\Users\User\.gradle\caches\transforms-2\files-2.1\231bf09a16a90031c2b4d7c06ff2b762\localbroadcastmanager-1.0.0\AndroidManifest.xml:20:5-44
MERGED from [androidx.print:print:1.0.0] C:\Users\User\.gradle\caches\transforms-2\files-2.1\24f297abfb14d88021ada11cbce0c7f3\print-1.0.0\AndroidManifest.xml:20:5-44
MERGED from [androidx.print:print:1.0.0] C:\Users\User\.gradle\caches\transforms-2\files-2.1\24f297abfb14d88021ada11cbce0c7f3\print-1.0.0\AndroidManifest.xml:20:5-44
MERGED from [androidx.lifecycle:lifecycle-runtime:2.1.0] C:\Users\User\.gradle\caches\transforms-2\files-2.1\c131664763b5ee5e47c9007e1341f8ea\lifecycle-runtime-2.1.0\AndroidManifest.xml:20:5-44
MERGED from [androidx.lifecycle:lifecycle-runtime:2.1.0] C:\Users\User\.gradle\caches\transforms-2\files-2.1\c131664763b5ee5e47c9007e1341f8ea\lifecycle-runtime-2.1.0\AndroidManifest.xml:20:5-44
MERGED from [androidx.lifecycle:lifecycle-viewmodel:2.1.0] C:\Users\User\.gradle\caches\transforms-2\files-2.1\fd4a6e580fe30f771f9a6c60f1a18b27\lifecycle-viewmodel-2.1.0\AndroidManifest.xml:20:5-44
MERGED from [androidx.lifecycle:lifecycle-viewmodel:2.1.0] C:\Users\User\.gradle\caches\transforms-2\files-2.1\fd4a6e580fe30f771f9a6c60f1a18b27\lifecycle-viewmodel-2.1.0\AndroidManifest.xml:20:5-44
MERGED from [androidx.savedstate:savedstate:1.0.0] C:\Users\User\.gradle\caches\transforms-2\files-2.1\e1ffd964f5bbbdca22c8a3c5e0b7c1b0\savedstate-1.0.0\AndroidManifest.xml:20:5-22:41
MERGED from [androidx.savedstate:savedstate:1.0.0] C:\Users\User\.gradle\caches\transforms-2\files-2.1\e1ffd964f5bbbdca22c8a3c5e0b7c1b0\savedstate-1.0.0\AndroidManifest.xml:20:5-22:41
MERGED from [androidx.lifecycle:lifecycle-livedata:2.0.0] C:\Users\User\.gradle\caches\transforms-2\files-2.1\320b57fe7155b7d6393fd96baf595606\lifecycle-livedata-2.0.0\AndroidManifest.xml:20:5-44
MERGED from [androidx.lifecycle:lifecycle-livedata:2.0.0] C:\Users\User\.gradle\caches\transforms-2\files-2.1\320b57fe7155b7d6393fd96baf595606\lifecycle-livedata-2.0.0\AndroidManifest.xml:20:5-44
MERGED from [androidx.lifecycle:lifecycle-livedata-core:2.0.0] C:\Users\User\.gradle\caches\transforms-2\files-2.1\bba2d74496bbc9bda2f6998cfc2bb850\lifecycle-livedata-core-2.0.0\AndroidManifest.xml:20:5-44
MERGED from [androidx.lifecycle:lifecycle-livedata-core:2.0.0] C:\Users\User\.gradle\caches\transforms-2\files-2.1\bba2d74496bbc9bda2f6998cfc2bb850\lifecycle-livedata-core-2.0.0\AndroidManifest.xml:20:5-44
MERGED from [androidx.arch.core:core-runtime:2.0.0] C:\Users\User\.gradle\caches\transforms-2\files-2.1\97762d4a4631fda0e1525138d21ba612\core-runtime-2.0.0\AndroidManifest.xml:20:5-44
MERGED from [androidx.arch.core:core-runtime:2.0.0] C:\Users\User\.gradle\caches\transforms-2\files-2.1\97762d4a4631fda0e1525138d21ba612\core-runtime-2.0.0\AndroidManifest.xml:20:5-44
INJECTED from C:\Users\User\IdeaProjects\ImageLoader\app\src\main\AndroidManifest.xml
INJECTED from C:\Users\User\IdeaProjects\ImageLoader\app\src\main\AndroidManifest.xml
	android:targetSdkVersion
		INJECTED from C:\Users\User\IdeaProjects\ImageLoader\app\src\main\AndroidManifest.xml
		ADDED from C:\Users\User\IdeaProjects\ImageLoader\app\src\main\AndroidManifest.xml
		INJECTED from C:\Users\User\IdeaProjects\ImageLoader\app\src\main\AndroidManifest.xml
	android:minSdkVersion
		INJECTED from C:\Users\User\IdeaProjects\ImageLoader\app\src\main\AndroidManifest.xml
		ADDED from C:\Users\User\IdeaProjects\ImageLoader\app\src\main\AndroidManifest.xml
		INJECTED from C:\Users\User\IdeaProjects\ImageLoader\app\src\main\AndroidManifest.xml
